0.	0.4563557032673264	0.16989205107166483	0.0871090714580729	0.05198013673078702
0.	0.5685723498319967	0.21309105369108655	0.10521421649554616	0.06258640563446581
0.	0.6891380793129926	0.26458496127407133	0.12661431226572098	0.07431597189023328
0.	0.8144249375442956	0.3239845817485308	0.15219398564925501	0.08742538429418686
0.	0.9406148030589419	0.39012712326072013	0.1826767723652343	0.10234520190637786
0.	1.0639642158592932	0.4611841962608676	0.21844261008473415	0.11963392577383276
0.	1.1810178763709414	0.5348428552282545	0.25940049077235844	0.13988121368966577
0.	1.2887649632292943	0.6085227535708686	0.30493651515457276	0.16358304305174592
0.	1.3847392834044723	0.6795963218621233	0.3539395197459853	0.19101748241135952
0.	1.4670688884977814	0.7455864254836672	0.4048922125258938	0.2221473689316938
0.	1.5344832420157044	0.8043254204572317	0.45600714686504373	0.25656800695147636
0.	1.5862870510545841	0.8540660696112266	0.5053838714079116	0.2935072816961732
0.	1.6223098460728151	0.8935456132386157	0.5511651071814628	0.331875283493601
0.	1.642839524944343	0.9220046287936184	0.5916742610523396	0.37035267259980326
0.	1.64854713059025	0.9391693705160472	0.6255224364379602	0.40750251433383244
0.	1.6404086625203036	0.9452059397325389	0.6516790808561149	0.44188917859488785
0.	1.619628492567459	0.9406554536904977	0.6695056038502262	0.4721895600042598
0.	1.587567684911945	0.9263586526120824	0.6787556001786839	0.497285140286966
0.	1.5456794719147426	0.9033771617425129	0.6795468819117703	0.5163280070608608
0.	1.495453156075938	0.8729171209764911	0.6723139293125121	0.5287778111730572
0.	1.438367048063821	0.8362593349165546	0.6577469759823363	0.5344106570423428
0.	1.3758504037041621	0.7946986404227779	0.636725463844439	0.5333035173369454
0.	1.3092539744091414	0.7494939224266183	0.6102514690162654	0.5257995303969203
0.	1.2398284502529469	0.7018291845876842	0.5793876578281251	0.5124602749720062
0.	1.168709942270236	0.6527853024140821	0.5452029040796272	0.49401104978794314
0.	1.0969115158419054	0.6033215507937499	0.5087274040658323	0.47128453065454473
0.	1.0253198352224258	0.5542656548383588	0.47091801909044156	0.44516716262028017
0.	0.9546959220034762	0.506311141054608	0.43263370020650116	0.41655147171795087
0.	0.8856791791094605	0.460019216963874	0.3946202154455869	0.3862963110173318
0.	0.8187938500656496	0.41582775987372944	0.3575029899814944	0.35519600213234115
0.	0.7544572260477506	0.37405953723548707	0.321786652700178	0.3239584636519089
0.	0.692988978104178	0.33493517347648616	0.2878598207098066	0.29319176105757044
0.	0.6346211282390305	0.29858597292975136	0.256003706436091	0.26339806792528114
0.	0.579508221394815	0.2650671826529681	0.22640326319972742	0.23497377492941593
0.	0.5277373952009259	0.23437093608264792	0.1991597630283243	0.20821438906399603
0.	0.47933808485361934	0.20643846350211212	0.17430389875169117	0.18332289359565385
0.	0.434291185796442	0.18117128810999272	0.1518087022809387	0.16042035296645035
0.	0.39253755173960253	0.15844123922171577	0.13160175836987398	0.13955771325120853
0.	0.3539857348295411	0.13809920281944987	0.11357635974626477	0.12072794046131675
0.	0.3185189630522105	0.11998260203707015	0.0976013908644414	0.10387783478677293
0.	0.28600129785822487	0.10392164913196539	0.08352984200722186	0.08891904372451508
0.	0.2562827734326865	0.08974445051089859	0.0712059442210325	0.07573796122312555
0.	0.22920535380395857	0.07728106462001133	0.060470980542122764	0.06420433834447394
0.	0.20460427301753795	0.06636663123135085	0.051167873454852866	0.0541785417755757
0.	0.18231395242537732	0.056843690474123056	0.043144675888900676	0.045517480612528784
0.	0.16216942049402613	0.04856381133688423	0.036257106680811474	0.03807928163710802
0.	0.1440087661866755	0.041388642800275384	0.030370274676902037	0.03172683216732075
0.	0.12767487325556484	0.03519049221176319	0.025359731143417965	0.026330331240002534
0.	0.11301674723325406	0.029852525198055337	0.02111198061842756	0.02176899812263822
0.	0.09989048207053404	0.025268670394985013	0.017524567463987627	0.017932085401571433
0.	0.08815993921058919	0.02134330096016435	0.014505840968970868	0.01471933519234482
0.	0.07769716519131617	0.017990753968274306	0.0119744869110189	0.012041003904431387
0.	0.06838260426261097	0.015134738353839296	0.009858898991561456	0.009817565475900816
0.	0.060105133664028206	0.012707673433919158	0.008096449968674504	0.007979186630782875
0.	0.05276196718504283	0.010649990797422201	0.0066327100766573905	0.006465051609273148
0.	0.04625844792764449	0.00890942605589186	0.005420649541935459	0.00522259874253705
0.	0.040507758233991435	0.007440320147543743	0.004419852766797735	0.004206717650675785
0.	0.03543056733745168	0.006202944871408461	0.003595764021719069	0.003378943972850387
0.	0.030954636604563764	0.005162862985119334	0.002918978127794163	0.002706678465192917
0.	0.027014402588187214	0.004290329732847245	0.002364584547503715	0.002162448971908421
0.	0.023550534991802936	0.0035597396729487537	0.0019115692994882392	0.0017232270662037414
0.	0.02050950009250256	0.002949120692699686	0.001542276104393027	0.0013698058970614206
0.	0.01784312201910651	0.0024396752957344205	0.0012419259298056976	0.0010862417723330783
0.	0.015508155662952494	0.00201536797777207	0.0009981925182213098	0.0008593590642249144
0.	0.013465875017085183	0.0016625566901039184	0.0008008304387714616	0.0006783159507715464
0.	0.01168167797543205	0.0013696658351246827	0.0006413515557387565	0.0005342271351809365
0.	0.01012471453147853	0.0011268975468986908	0.0005127454952731462	0.00041983886180971405
0.	0.008767535035351996	0.0009259784869894295	0.00040923959849809715	0.00032925114193728676
0.	0.007585762515521695	0.000759938455577506	0.0003260939434202354	0.00025768200624527705
0.	0.006557789772518297	0.0006229179808933525	0.00025942722507500373	0.00020126872244748302
0.	0.005664497243099626	0.0005100016296915172	0.00020606956065227222	0.00015690118692552742
0.	0.004888996103066956	0.00041707422211543095	0.0001634386211385816	0.00012208306059494696
0.	0.004216391438793968	0.00034069720705759	0.00012943583183716058	0.00009481663064621848
0.	0.003633567169063264	0.00027800278652476254	0.00010235973732057488	0.00007350780938909063
0.	0.0031289916526201812	0.0002266034669011697	0.000080833963346693	0.00005688810736674911
0.	0.002692539930957853	0.00018451507001049293	0.0000637475288719407	0.00004395082457060256
0.	0.0023153344296321862	0.00015009136094436889	0.00005020555661541402	0.00003389908207163545
0.	0.0019896021933779604	0.0001219687092557635	0.00003948870131743535	0.000026103660855424
0.	0.0017085453108218027	0.000099019328180497	0.00003101985437661854	0.000020068922911780526
0.	0.0014662267379787258	0.00008031190878963663	0.0000243368995164713	0.000015405361727208953
0.	0.0012574666883615826	0.00006507851449949068	0.0000190704812435985	0.000011807566468197352
0.	0.0010777517690943369	0.00005268682151524807	0.000014925911756648402	9.036588600656738e-6
0.	0.0009231534245512393	0.000042616887815769205	0.000011668483300882592	6.905874564963882e-6
0.	0.0007902557918441903	0.0000344417509834681	9.111573868746276e-6	5.270076188750294e-6
0.	0.0006760918153907529	0.00002781125562727548	7.107037576237397e-6	4.016175180733472e-6
0.	0.0005780872003089202	0.000022438598071674065	5.537458236559162e-6	3.05646215584708e-6
0.	0.0004940101723141897	0.00001808915191025348	4.309918382326168e-6	2.3229971318159946e-6
0.	0.00042192806130820945	0.00001457120385595575	3.3509976940772855e-6	1.7632498415460872e-6
0.	0.00036016857722133335	0.000011728285886191599	2.602766324314937e-6	1.3366768635498054e-6
0.	0.00030728609684014353	9.432840551731012e-6	2.0195814344606283e-6	1.0120405292711085e-6
0.	0.00026203197667654446	7.580990878591113e-6	1.5655307201321828e-6	7.653135824202224e-7
0.	0.00022332866324084884	6.08823648254678e-6	1.2123959481866542e-6	5.780451801610568e-7
0.	0.00019024698881973075	4.8859096807613704e-6	9.380335713199194e-7	4.3608934361620544e-7
0.	0.00016198636612141764	3.918265637443656e-6	7.250891847288447e-7	3.2861747711436797e-7
0.	0.00013785759700294875	3.1400950527890777e-6	5.59978679332548e-7	2.4735300943891486e-7
0.	0.00011726769648965774	2.5147683055316806e-6	4.320820501046071e-7	1.8597932830162645e-7
0.	0.00009970695436677992	2.0126351188486814e-6	3.3310645946436756e-7	1.3968262384883025e-7
0.	0.00008473749982953724	1.6097167417601255e-6	2.56583779173852e-7	1.0479953565220721e-7
0.	0.00007198344624547504	1.2866384597621456e-6	1.9747479254512118e-7	7.854605381035601e-8
0.	0.00006112234257065772	1.0277592894250313e-6	1.5185786036238275e-7	5.880929159420388e-8